^C:\USERS\OH132\DOCUMENTS\VISUAL STUDIO 2015\PROJECTS\TICDISORDER_TEST\TICDISORDER_TEST\MAIN.CPP
C:\USERS\OH132\DOCUMENTS\VISUAL STUDIO 2015\PROJECTS\TICDISORDER_TEST\TICDISORDER_TEST\DEBUG\VC140.PDB
C:\USERS\OH132\DOCUMENTS\VISUAL STUDIO 2015\PROJECTS\TICDISORDER_TEST\TICDISORDER_TEST\DEBUG\VC140.IDB
C:\USERS\OH132\DOCUMENTS\VISUAL STUDIO 2015\PROJECTS\TICDISORDER_TEST\TICDISORDER_TEST\DEBUG\MAIN.OBJ
